\contentsline {section}{\numberline {1}Hello everyone}{2}
\contentsline {subsection}{\numberline {1.1} good morning}{2}
\contentsline {subsubsection}{\numberline {1.1.1} good breakfast}{2}
\contentsline {paragraph}{breakfast}{2}
\contentsline {subparagraph}{}{2}
\contentsline {subsection}{\numberline {1.2} good afternoon}{2}
