\relax 
\@writefile{toc}{\contentsline {section}{\numberline {1}Hello everyone}{2}}
\@writefile{toc}{\contentsline {subsection}{\numberline {1.1} good morning}{2}}
\@writefile{toc}{\contentsline {subsubsection}{\numberline {1.1.1} good breakfast}{2}}
\@writefile{toc}{\contentsline {paragraph}{breakfast}{2}}
\@writefile{toc}{\contentsline {subparagraph}{}{2}}
\@writefile{toc}{\contentsline {subsection}{\numberline {1.2} good afternoon}{2}}
\@writefile{lof}{\contentsline {figure}{\numberline {1}{\ignorespaces }}{3}}
\newlabel{fig:digit}{{1}{3}}
