# Fdb version 3
["pdflatex"] 1457452573 "/Users/luansitao/Documents/Elementry stochastic process/lecture 12/lecture 12" "/Users/luansitao/Documents/Elementry stochastic process/lecture 12/lecture_12.pdf" "lecture_12" 1457452576
  "/Users/luansitao/Documents/Elementry stochastic process/lecture 12/lecture 12" 1457452571 13305 3c99397f9096572db1f9bcef71c79e5a ""
  "/Users/luansitao/Documents/Elementry stochastic process/lecture 12/lecture_12.aux" 1457452576 2881 b455a9978e6c265f9d53bd441345ba96 ""
  "/usr/local/texlive/2015/texmf-dist/fonts/map/fontname/texfonts.map" 1272929888 3287 e6b82fe08f5336d4d5ebc73fb1152e87 ""
  "/usr/local/texlive/2015/texmf-dist/fonts/tfm/public/amsfonts/cmextra/cmex7.tfm" 1246382020 1004 54797486969f23fa377b128694d548df ""
  "/usr/local/texlive/2015/texmf-dist/fonts/tfm/public/amsfonts/cmextra/cmex8.tfm" 1246382020 988 bdf658c3bfc2d96d3c8b02cfc1c94c20 ""
  "/usr/local/texlive/2015/texmf-dist/fonts/tfm/public/amsfonts/symbols/msam10.tfm" 1246382020 916 f87d7c45f9c908e672703b83b72241a3 ""
  "/usr/local/texlive/2015/texmf-dist/fonts/tfm/public/amsfonts/symbols/msam7.tfm" 1246382020 928 2dc8d444221b7a635bb58038579b861a ""
  "/usr/local/texlive/2015/texmf-dist/fonts/tfm/public/amsfonts/symbols/msbm10.tfm" 1246382020 908 2921f8a10601f252058503cc6570e581 ""
  "/usr/local/texlive/2015/texmf-dist/fonts/tfm/public/amsfonts/symbols/msbm7.tfm" 1246382020 940 228d6584342e91276bf566bcf9716b83 ""
  "/usr/local/texlive/2015/texmf-dist/fonts/tfm/public/cm/cmex10.tfm" 1136768653 992 662f679a0b3d2d53c1b94050fdaa3f50 ""
  "/usr/local/texlive/2015/texmf-dist/fonts/tfm/public/cm/cmmi10.tfm" 1136768653 1528 abec98dbc43e172678c11b3b9031252a ""
  "/usr/local/texlive/2015/texmf-dist/fonts/tfm/public/cm/cmmi6.tfm" 1136768653 1512 f21f83efb36853c0b70002322c1ab3ad ""
  "/usr/local/texlive/2015/texmf-dist/fonts/tfm/public/cm/cmmi8.tfm" 1136768653 1520 eccf95517727cb11801f4f1aee3a21b4 ""
  "/usr/local/texlive/2015/texmf-dist/fonts/tfm/public/cm/cmr10.tfm" 1136768653 1296 45809c5a464d5f32c8f98ba97c1bb47f ""
  "/usr/local/texlive/2015/texmf-dist/fonts/tfm/public/cm/cmr12.tfm" 1136768653 1288 655e228510b4c2a1abe905c368440826 ""
  "/usr/local/texlive/2015/texmf-dist/fonts/tfm/public/cm/cmr6.tfm" 1136768653 1300 b62933e007d01cfd073f79b963c01526 ""
  "/usr/local/texlive/2015/texmf-dist/fonts/tfm/public/cm/cmr8.tfm" 1136768653 1292 21c1c5bfeaebccffdb478fd231a0997d ""
  "/usr/local/texlive/2015/texmf-dist/fonts/tfm/public/cm/cmss10.tfm" 1136768653 1316 b636689f1933f24d1294acdf6041daaa ""
  "/usr/local/texlive/2015/texmf-dist/fonts/tfm/public/cm/cmsy10.tfm" 1136768653 1124 6c73e740cf17375f03eec0ee63599741 ""
  "/usr/local/texlive/2015/texmf-dist/fonts/tfm/public/cm/cmsy6.tfm" 1136768653 1116 933a60c408fc0a863a92debe84b2d294 ""
  "/usr/local/texlive/2015/texmf-dist/fonts/tfm/public/cm/cmsy8.tfm" 1136768653 1120 8b7d695260f3cff42e636090a8002094 ""
  "/usr/local/texlive/2015/texmf-dist/fonts/type1/public/amsfonts/cm/cmex10.pfb" 1248133631 30251 6afa5cb1d0204815a708a080681d4674 ""
  "/usr/local/texlive/2015/texmf-dist/fonts/type1/public/amsfonts/cm/cmmi10.pfb" 1248133631 36299 5f9df58c2139e7edcf37c8fca4bd384d ""
  "/usr/local/texlive/2015/texmf-dist/fonts/type1/public/amsfonts/cm/cmmi6.pfb" 1248133631 37166 8ab3487cbe3ab49ebce74c29ea2418db ""
  "/usr/local/texlive/2015/texmf-dist/fonts/type1/public/amsfonts/cm/cmmi8.pfb" 1248133631 35469 70d41d2b9ea31d5d813066df7c99281c ""
  "/usr/local/texlive/2015/texmf-dist/fonts/type1/public/amsfonts/cm/cmr10.pfb" 1248133631 35752 024fb6c41858982481f6968b5fc26508 ""
  "/usr/local/texlive/2015/texmf-dist/fonts/type1/public/amsfonts/cm/cmr12.pfb" 1248133631 32722 d7379af29a190c3f453aba36302ff5a9 ""
  "/usr/local/texlive/2015/texmf-dist/fonts/type1/public/amsfonts/cm/cmr6.pfb" 1248133631 32734 69e00a6b65cedb993666e42eedb3d48f ""
  "/usr/local/texlive/2015/texmf-dist/fonts/type1/public/amsfonts/cm/cmr8.pfb" 1248133631 32726 0a1aea6fcd6468ee2cf64d891f5c43c8 ""
  "/usr/local/texlive/2015/texmf-dist/fonts/type1/public/amsfonts/cm/cmsy10.pfb" 1248133631 32569 5e5ddc8df908dea60932f3c484a54c0d ""
  "/usr/local/texlive/2015/texmf-dist/fonts/type1/public/amsfonts/cm/cmsy8.pfb" 1248133631 32626 4f5c1b83753b1dd3a97d1b399a005b4b ""
  "/usr/local/texlive/2015/texmf-dist/tex/context/base/supp-pdf.mkii" 1337017135 71627 94eb9990bed73c364d7f53f960cc8c5b ""
  "/usr/local/texlive/2015/texmf-dist/tex/generic/babel-english/english.ldf" 1367878877 6963 2e0cb3d93aa64508bdb0db58ae900d97 ""
  "/usr/local/texlive/2015/texmf-dist/tex/generic/babel/babel.def" 1411763270 49725 b40154b767b0073ee42b35911042b793 ""
  "/usr/local/texlive/2015/texmf-dist/tex/generic/babel/babel.sty" 1411763270 13212 dc56c11a26f3ea97bcf005eeda274583 ""
  "/usr/local/texlive/2015/texmf-dist/tex/generic/chemfig/chemfig.sty" 1424819566 2113 57c7b03bebd2d28b561693823195ed86 ""
  "/usr/local/texlive/2015/texmf-dist/tex/generic/chemfig/chemfig.tex" 1424819566 98602 be2a0bb87e19e9ed09dc733a0024db3f ""
  "/usr/local/texlive/2015/texmf-dist/tex/generic/ifxetex/ifxetex.sty" 1284331290 1458 43ab4710dc82f3edeabecd0d099626b2 ""
  "/usr/local/texlive/2015/texmf-dist/tex/generic/oberdiek/atbegshi.sty" 1335995445 24460 92f559a71aac869021852c227c704b38 ""
  "/usr/local/texlive/2015/texmf-dist/tex/generic/oberdiek/gettitlestring.sty" 1303254447 8237 52810bdb4db2270e717422560a104aea ""
  "/usr/local/texlive/2015/texmf-dist/tex/generic/oberdiek/hobsub-generic.sty" 1338332114 189108 8b3553a56c83ff61acecb36b75d817e2 ""
  "/usr/local/texlive/2015/texmf-dist/tex/generic/oberdiek/hobsub-hyperref.sty" 1338332114 70752 45fa392800e07da61fa13446ad46b34d ""
  "/usr/local/texlive/2015/texmf-dist/tex/generic/oberdiek/ifpdf.sty" 1303254447 7140 ece2cc23d9f20e1f53975ac167f42d3e ""
  "/usr/local/texlive/2015/texmf-dist/tex/generic/oberdiek/ifvtex.sty" 1335995445 6797 68c89f65e01894df882dd523d3fc0a8f ""
  "/usr/local/texlive/2015/texmf-dist/tex/generic/oberdiek/infwarerr.sty" 1335995445 8253 3bdedc8409aa5d290a2339be6f09af03 ""
  "/usr/local/texlive/2015/texmf-dist/tex/generic/oberdiek/ltxcmds.sty" 1335995445 18425 775b341047ce304520cc7c11ca41392e ""
  "/usr/local/texlive/2015/texmf-dist/tex/generic/pgf/basiclayer/pgfcore.code.tex" 1288312291 1006 b103be0bfc8c1682ff1fa9760697a329 ""
  "/usr/local/texlive/2015/texmf-dist/tex/generic/pgf/basiclayer/pgfcorearrows.code.tex" 1393459310 42678 ea82fd948b4303ce6a2c8e25d5e8f8aa ""
  "/usr/local/texlive/2015/texmf-dist/tex/generic/pgf/basiclayer/pgfcoreexternal.code.tex" 1393459310 19287 b2041c22301def2360f03c004d16068d ""
  "/usr/local/texlive/2015/texmf-dist/tex/generic/pgf/basiclayer/pgfcoregraphicstate.code.tex" 1393459310 6653 6c617c4a5106d9f40e3d70946ba4e0ac ""
  "/usr/local/texlive/2015/texmf-dist/tex/generic/pgf/basiclayer/pgfcoreimage.code.tex" 1393459310 7041 a891ad72049e17c4e366c40ca37b0ccb ""
  "/usr/local/texlive/2015/texmf-dist/tex/generic/pgf/basiclayer/pgfcorelayers.code.tex" 1393459310 4625 40c07e9f6f2f7c674704b3f2055560ce ""
  "/usr/local/texlive/2015/texmf-dist/tex/generic/pgf/basiclayer/pgfcoreobjects.code.tex" 1203877327 2631 7eefa6cdbefd8d4e2bad7262cf1094cd ""
  "/usr/local/texlive/2015/texmf-dist/tex/generic/pgf/basiclayer/pgfcorepathconstruct.code.tex" 1393459310 43477 81143b33d9ebafdeead07ede13372427 ""
  "/usr/local/texlive/2015/texmf-dist/tex/generic/pgf/basiclayer/pgfcorepathprocessing.code.tex" 1393459310 17436 8d99d4113be311daf23deff86991ee7d ""
  "/usr/local/texlive/2015/texmf-dist/tex/generic/pgf/basiclayer/pgfcorepathusage.code.tex" 1393459310 20857 256da99fc70ea570aad1d50fdfd51464 ""
  "/usr/local/texlive/2015/texmf-dist/tex/generic/pgf/basiclayer/pgfcorepatterns.code.tex" 1393459310 9641 711f0edc22c180a5caf168b6e8970057 ""
  "/usr/local/texlive/2015/texmf-dist/tex/generic/pgf/basiclayer/pgfcorepoints.code.tex" 1393459310 34516 658a71478d21df554bce9d9cd436203a ""
  "/usr/local/texlive/2015/texmf-dist/tex/generic/pgf/basiclayer/pgfcorequick.code.tex" 1288312291 3052 e5672c657232fd63b0a9853b0746297c ""
  "/usr/local/texlive/2015/texmf-dist/tex/generic/pgf/basiclayer/pgfcorescopes.code.tex" 1393459310 16849 86fed972a2b3ad61208a6422e104bf26 ""
  "/usr/local/texlive/2015/texmf-dist/tex/generic/pgf/basiclayer/pgfcoreshade.code.tex" 1393459310 21541 4cd19f8ff7dd74d5aa7d803a6397af84 ""
  "/usr/local/texlive/2015/texmf-dist/tex/generic/pgf/basiclayer/pgfcoretransformations.code.tex" 1393459310 17423 a0f09c822b83b65445bc3ac25542dcc6 ""
  "/usr/local/texlive/2015/texmf-dist/tex/generic/pgf/basiclayer/pgfcoretransparency.code.tex" 1393459310 8943 2e2495b057f8f0035b5568394d489963 ""
  "/usr/local/texlive/2015/texmf-dist/tex/generic/pgf/frontendlayer/tikz/libraries/tikzlibrarytopaths.code.tex" 1288312291 11599 d694704a88e2f9007c996d3a6a4d629c ""
  "/usr/local/texlive/2015/texmf-dist/tex/generic/pgf/frontendlayer/tikz/tikz.code.tex" 1393459310 175287 31eb66e838dd5e10589736193a31943c ""
  "/usr/local/texlive/2015/texmf-dist/tex/generic/pgf/libraries/pgflibraryplothandlers.code.tex" 1393459310 32969 dbcfd5a7de6a0f7255c333ef60287d59 ""
  "/usr/local/texlive/2015/texmf-dist/tex/generic/pgf/math/pgfmath.code.tex" 1393459310 454 9e9e7c99f4da4f41698be21eaef4938e ""
  "/usr/local/texlive/2015/texmf-dist/tex/generic/pgf/math/pgfmathcalc.code.tex" 1393459310 13416 940ea6971d7a65dc440d3479939c66ae ""
  "/usr/local/texlive/2015/texmf-dist/tex/generic/pgf/math/pgfmathfloat.code.tex" 1393459310 91879 5b3cc8d94c47a5b742393a410f298724 ""
  "/usr/local/texlive/2015/texmf-dist/tex/generic/pgf/math/pgfmathfunctions.base.code.tex" 1393459310 9375 5adc70f722abd29fc250d59e0694b548 ""
  "/usr/local/texlive/2015/texmf-dist/tex/generic/pgf/math/pgfmathfunctions.basic.code.tex" 1393459310 21406 80daebd1f9f6a174d8dc77c5bc931bf4 ""
  "/usr/local/texlive/2015/texmf-dist/tex/generic/pgf/math/pgfmathfunctions.code.tex" 1393459310 7820 5140d142921f39003e02ccedd072823a ""
  "/usr/local/texlive/2015/texmf-dist/tex/generic/pgf/math/pgfmathfunctions.comparison.code.tex" 1288312291 3534 c7f28fbac13616513e513efe93b8569b ""
  "/usr/local/texlive/2015/texmf-dist/tex/generic/pgf/math/pgfmathfunctions.integerarithmetics.code.tex" 1393459310 3167 7c9394e79aac27db96a92f9b2792b858 ""
  "/usr/local/texlive/2015/texmf-dist/tex/generic/pgf/math/pgfmathfunctions.misc.code.tex" 1393459310 9165 99b6966558714c44c0b5ee44ae261ffc ""
  "/usr/local/texlive/2015/texmf-dist/tex/generic/pgf/math/pgfmathfunctions.random.code.tex" 1288312291 6964 d4b5e82dabddda1c728063bb9c8a22ba ""
  "/usr/local/texlive/2015/texmf-dist/tex/generic/pgf/math/pgfmathfunctions.round.code.tex" 1288312291 2688 139c6abc86761a6190c2f4bef5d752be ""
  "/usr/local/texlive/2015/texmf-dist/tex/generic/pgf/math/pgfmathfunctions.trigonometric.code.tex" 1393459310 91075 1c1d7a7e8f0f737f72aa8becf0b37136 ""
  "/usr/local/texlive/2015/texmf-dist/tex/generic/pgf/math/pgfmathparser.code.tex" 1393459310 33289 b041d55e91f7382603e2dca6f9ad188d ""
  "/usr/local/texlive/2015/texmf-dist/tex/generic/pgf/math/pgfmathutil.code.tex" 1393459310 7099 f44d505bae6c7c2b933cdd63441db4b9 ""
  "/usr/local/texlive/2015/texmf-dist/tex/generic/pgf/modules/pgfmodulematrix.code.tex" 1393459310 20934 2328bd2e04520e1ab077ac4ee13b8935 ""
  "/usr/local/texlive/2015/texmf-dist/tex/generic/pgf/modules/pgfmoduleplot.code.tex" 1393459310 15785 e0b14c447df00370d2023fd5c9813190 ""
  "/usr/local/texlive/2015/texmf-dist/tex/generic/pgf/modules/pgfmoduleshapes.code.tex" 1393459310 42336 b13cf09dc317c76a2b165a8501d871cf ""
  "/usr/local/texlive/2015/texmf-dist/tex/generic/pgf/systemlayer/pgf.cfg" 1288312291 978 15af626ebd3d4d790aac19170dac04f2 ""
  "/usr/local/texlive/2015/texmf-dist/tex/generic/pgf/systemlayer/pgfsys-common-pdf.def" 1393459310 5437 d91f93ed61ecdc57e119849b2d784a0b ""
  "/usr/local/texlive/2015/texmf-dist/tex/generic/pgf/systemlayer/pgfsys-pdftex.def" 1393459310 11969 518d66d5b5e20471ba00709ef9c2b267 ""
  "/usr/local/texlive/2015/texmf-dist/tex/generic/pgf/systemlayer/pgfsys.code.tex" 1393459310 34488 3bab2022cdd1acab0cd383d8a0ad641b ""
  "/usr/local/texlive/2015/texmf-dist/tex/generic/pgf/systemlayer/pgfsysprotocol.code.tex" 1203877327 1983 b5994ebbcee17f1ba3d29bb1bd696fcf ""
  "/usr/local/texlive/2015/texmf-dist/tex/generic/pgf/systemlayer/pgfsyssoftpath.code.tex" 1393459310 7881 d459d6057e13d10ce7a227ae44b7295e ""
  "/usr/local/texlive/2015/texmf-dist/tex/generic/pgf/utilities/pgffor.code.tex" 1393459310 22211 d696ef78c12269178882d218b2cf191d ""
  "/usr/local/texlive/2015/texmf-dist/tex/generic/pgf/utilities/pgfkeys.code.tex" 1393459310 36194 e194ef4e0b396b531a3891feb4b1cc22 ""
  "/usr/local/texlive/2015/texmf-dist/tex/generic/pgf/utilities/pgfkeysfiltered.code.tex" 1393459310 33377 af391d6ad1bfcbe2278e191f48e43ba8 ""
  "/usr/local/texlive/2015/texmf-dist/tex/generic/pgf/utilities/pgfrcs.code.tex" 1393459310 2286 b5c392d27790ca52b8f8e510ef5044e0 ""
  "/usr/local/texlive/2015/texmf-dist/tex/generic/pgf/utilities/pgfutil-common-lists.tex" 1393459310 6833 114eda2cf1d348e0e7e477a1a4dc1941 ""
  "/usr/local/texlive/2015/texmf-dist/tex/generic/pgf/utilities/pgfutil-common.tex" 1393459310 16384 3fa06861c9a3391a75df39466f49655f ""
  "/usr/local/texlive/2015/texmf-dist/tex/generic/pgf/utilities/pgfutil-latex.def" 1393459310 4500 b148f531c7670d59c695787be06a508b ""
  "/usr/local/texlive/2015/texmf-dist/tex/latex/amscls/amsthm.sty" 1428861406 12225 3cca0d18522255979a1047206228b9d0 ""
  "/usr/local/texlive/2015/texmf-dist/tex/latex/amsfonts/amsfonts.sty" 1359763108 5949 3f3fd50a8cc94c3d4cbf4fc66cd3df1c ""
  "/usr/local/texlive/2015/texmf-dist/tex/latex/amsfonts/amssymb.sty" 1359763108 13829 94730e64147574077f8ecfea9bb69af4 ""
  "/usr/local/texlive/2015/texmf-dist/tex/latex/amsfonts/umsa.fd" 1359763108 961 6518c6525a34feb5e8250ffa91731cff ""
  "/usr/local/texlive/2015/texmf-dist/tex/latex/amsfonts/umsb.fd" 1359763108 961 d02606146ba5601b5645f987c92e6193 ""
  "/usr/local/texlive/2015/texmf-dist/tex/latex/amsmath/amsbsy.sty" 1362954379 2412 2d98314dc5be38f455f8890deeb2d091 ""
  "/usr/local/texlive/2015/texmf-dist/tex/latex/amsmath/amsgen.sty" 1362954379 4357 ad30ad08920902fc9b38caf35a3b0496 ""
  "/usr/local/texlive/2015/texmf-dist/tex/latex/amsmath/amsmath.sty" 1362954379 79178 b2e326c351e876df0e5e23df2e02441b ""
  "/usr/local/texlive/2015/texmf-dist/tex/latex/amsmath/amsopn.sty" 1362954379 4082 502152465aedb8f6a3c4b0b7c0fa8ae5 ""
  "/usr/local/texlive/2015/texmf-dist/tex/latex/amsmath/amstext.sty" 1362954379 2637 846ebe982d3549c7ede7ce135456f54a ""
  "/usr/local/texlive/2015/texmf-dist/tex/latex/base/ifthen.sty" 1428932888 5159 bb529586d444e85eb00179221b678119 ""
  "/usr/local/texlive/2015/texmf-dist/tex/latex/base/inputenc.sty" 1428932888 5619 3f48adceb9004b3fefe24c2d2df7d98e ""
  "/usr/local/texlive/2015/texmf-dist/tex/latex/base/size11.clo" 1428932888 9195 b429d9ae04d88356fbd16a7b811e600f ""
  "/usr/local/texlive/2015/texmf-dist/tex/latex/beamer/art/beamericonarticle.20.pdf" 1243719999 2958 4e0c4a6e994e5c4d9da11c477e927f0f ""
  "/usr/local/texlive/2015/texmf-dist/tex/latex/beamer/art/beamericonarticle.pdf" 1243719999 2936 6cc3ef0682cbb62be8aa1b19f0a84ed6 ""
  "/usr/local/texlive/2015/texmf-dist/tex/latex/beamer/art/beamericonbook.20.pdf" 1243719999 2734 0bcf939051dd2a936cdfe5982f7c233b ""
  "/usr/local/texlive/2015/texmf-dist/tex/latex/beamer/art/beamericonbook.pdf" 1243719999 2667 7624351b441ffe4bd2d14e08fbcf063d ""
  "/usr/local/texlive/2015/texmf-dist/tex/latex/beamer/art/beamericononline.20.pdf" 1336690774 24451 195d2c060e84f339954bc6d9b52131d7 ""
  "/usr/local/texlive/2015/texmf-dist/tex/latex/beamer/art/beamericononline.pdf" 1336690774 24611 df07010540266b2b205b492a4d02e7e1 ""
  "/usr/local/texlive/2015/texmf-dist/tex/latex/beamer/beamer.cls" 1424819428 11652 d1eb7e7c6dc70b051da03c4df3becb6d ""
  "/usr/local/texlive/2015/texmf-dist/tex/latex/beamer/beamerbaseauxtemplates.sty" 1424819428 21780 5f489ec6a37f9eeb9ce745f5df45583b ""
  "/usr/local/texlive/2015/texmf-dist/tex/latex/beamer/beamerbaseboxes.sty" 1337124771 8152 67432f53408b0873c768b45587519831 ""
  "/usr/local/texlive/2015/texmf-dist/tex/latex/beamer/beamerbasecolor.sty" 1424819428 13019 3c9318abd1e3357443fe791809922993 ""
  "/usr/local/texlive/2015/texmf-dist/tex/latex/beamer/beamerbasecompatibility.sty" 1336690774 23615 6319bbb4324f4bee99017977c8ae0d16 ""
  "/usr/local/texlive/2015/texmf-dist/tex/latex/beamer/beamerbasedecode.sty" 1330042237 8196 46ac7d7f25158a930825927ffc652ca1 ""
  "/usr/local/texlive/2015/texmf-dist/tex/latex/beamer/beamerbasefont.sty" 1424819428 13245 5bcc75bb1885812c681fe98713e4bd2b ""
  "/usr/local/texlive/2015/texmf-dist/tex/latex/beamer/beamerbaseframe.sty" 1424819428 24929 396878aa27c25ad36ff6c3832a851ef9 ""
  "/usr/local/texlive/2015/texmf-dist/tex/latex/beamer/beamerbaseframecomponents.sty" 1385332860 11686 536054900c4397b6079fa08342a3439a ""
  "/usr/local/texlive/2015/texmf-dist/tex/latex/beamer/beamerbaseframesize.sty" 1315954328 8859 dafd8fa216da7579c838fdae85e2a114 ""
  "/usr/local/texlive/2015/texmf-dist/tex/latex/beamer/beamerbaselocalstructure.sty" 1424819428 16358 f2a1983940ebe8ecd324e9efb729077f ""
  "/usr/local/texlive/2015/texmf-dist/tex/latex/beamer/beamerbasemisc.sty" 1380839141 7859 e74ac1416e53fb62ad9aaa2a38f60e13 ""
  "/usr/local/texlive/2015/texmf-dist/tex/latex/beamer/beamerbasemodes.sty" 1380839141 8272 738cc131e9da6be9f6fb7088a3123fc5 ""
  "/usr/local/texlive/2015/texmf-dist/tex/latex/beamer/beamerbasenavigation.sty" 1425163989 28725 c0bfaa20ea6da12ec36db89d5e6d552b ""
  "/usr/local/texlive/2015/texmf-dist/tex/latex/beamer/beamerbasenotes.sty" 1356734651 5169 2b5c46f5aae1011bff912a1b0563d08f ""
  "/usr/local/texlive/2015/texmf-dist/tex/latex/beamer/beamerbaseoptions.sty" 1372201191 1771 9a9e09ce9b99966cfa1fae34a7379ad4 ""
  "/usr/local/texlive/2015/texmf-dist/tex/latex/beamer/beamerbaseoverlay.sty" 1388099988 26049 0760c785c3cad7739a585a439b697e1d ""
  "/usr/local/texlive/2015/texmf-dist/tex/latex/beamer/beamerbasercs.sty" 1425853802 1150 aec60117ad71747c20d97f6493e3d3cd ""
  "/usr/local/texlive/2015/texmf-dist/tex/latex/beamer/beamerbaserequires.sty" 1330042237 1768 973a5a56c6e32b2158ac04f40d5c9e34 ""
  "/usr/local/texlive/2015/texmf-dist/tex/latex/beamer/beamerbasesection.sty" 1372201191 12566 d05c3f949b85a4352a7e2a73bcef3ef1 ""
  "/usr/local/texlive/2015/texmf-dist/tex/latex/beamer/beamerbasetemplates.sty" 1330042237 5867 30b5faf6064b4c1f6cfcae537d53f777 ""
  "/usr/local/texlive/2015/texmf-dist/tex/latex/beamer/beamerbasethemes.sty" 1330042237 1213 a65cfbdb3da53cdcb42aa357ee2c9a80 ""
  "/usr/local/texlive/2015/texmf-dist/tex/latex/beamer/beamerbasetheorems.sty" 1330042237 4661 d4a08c8dfc775ff80af9a298b59f43f2 ""
  "/usr/local/texlive/2015/texmf-dist/tex/latex/beamer/beamerbasetitle.sty" 1330042237 5576 052b5ee6784b3573f11875ef38a2c090 ""
  "/usr/local/texlive/2015/texmf-dist/tex/latex/beamer/beamerbasetoc.sty" 1425853802 7367 ddc9437eeea0647cc89861eb97a892b1 ""
  "/usr/local/texlive/2015/texmf-dist/tex/latex/beamer/beamerbasetranslator.sty" 1330042237 779 5bf46f7056f65a541979aa9432dfdfd2 ""
  "/usr/local/texlive/2015/texmf-dist/tex/latex/beamer/beamerbasetwoscreens.sty" 1330042237 1516 d9e44becf9c2c14b8d981b7bcfb6305a ""
  "/usr/local/texlive/2015/texmf-dist/tex/latex/beamer/beamerbaseverbatim.sty" 1424819428 3492 1a29b8c5e7309256d414f79a777fbe4e ""
  "/usr/local/texlive/2015/texmf-dist/tex/latex/beamer/themes/color/beamercolorthemedefault.sty" 1356734651 7111 734d62bffaf1cebe91f0933f9e726313 ""
  "/usr/local/texlive/2015/texmf-dist/tex/latex/beamer/themes/color/beamercolorthemeorchid.sty" 1330042237 993 9631a39bd8b21319896792aca2fcf958 ""
  "/usr/local/texlive/2015/texmf-dist/tex/latex/beamer/themes/color/beamercolorthemewhale.sty" 1330042237 1170 9d8b3db03d340de7ef9b572c2f7fb40c ""
  "/usr/local/texlive/2015/texmf-dist/tex/latex/beamer/themes/font/beamerfontthemedefault.sty" 1356734651 4203 af57d0c57c4df9b07cc093bded923ade ""
  "/usr/local/texlive/2015/texmf-dist/tex/latex/beamer/themes/font/beamerfontthemeserif.sty" 1330042237 1111 76bd20e0831cca60b933b92a8388f9ec ""
  "/usr/local/texlive/2015/texmf-dist/tex/latex/beamer/themes/inner/beamerinnerthemedefault.sty" 1424819428 12853 96c419e8933d04c8ef0cdc1b26023325 ""
  "/usr/local/texlive/2015/texmf-dist/tex/latex/beamer/themes/inner/beamerinnerthemerounded.sty" 1330042237 910 17b1b58c598bd3fee31d5ef054dc9ce6 ""
  "/usr/local/texlive/2015/texmf-dist/tex/latex/beamer/themes/outer/beamerouterthemedefault.sty" 1356734651 6548 8aa4c06cc7f4a89169b2324e0a036323 ""
  "/usr/local/texlive/2015/texmf-dist/tex/latex/beamer/themes/outer/beamerouterthemeinfolines.sty" 1351557273 2051 014b8b318248daa4c8505abc5830749c ""
  "/usr/local/texlive/2015/texmf-dist/tex/latex/beamer/themes/theme/beamerthemeMadrid.sty" 1330042237 709 ddf6f7914cf32b1beee76c5ffd0047d6 ""
  "/usr/local/texlive/2015/texmf-dist/tex/latex/beamer/themes/theme/beamerthemedefault.sty" 1330042237 509 f06bfcabac6b7c8411f16c350f5110af ""
  "/usr/local/texlive/2015/texmf-dist/tex/latex/beamer/translator/dicts/translator-basic-dictionary/translator-basic-dictionary-English.dict" 1279125320 3435 0a4d096dde3f8fe682c2aedd33b8137d ""
  "/usr/local/texlive/2015/texmf-dist/tex/latex/beamer/translator/dicts/translator-bibliography-dictionary/translator-bibliography-dictionary-English.dict" 1276550127 903 c6d17f0656e9e1abb172b4faebabd617 ""
  "/usr/local/texlive/2015/texmf-dist/tex/latex/beamer/translator/dicts/translator-environment-dictionary/translator-environment-dictionary-English.dict" 1276550127 433 bfb8d1c2c020defd2de8e5c276710094 ""
  "/usr/local/texlive/2015/texmf-dist/tex/latex/beamer/translator/dicts/translator-months-dictionary/translator-months-dictionary-English.dict" 1276550127 1337 9a6c05e8f0c8b3c5f27cbd0e455cf475 ""
  "/usr/local/texlive/2015/texmf-dist/tex/latex/beamer/translator/dicts/translator-numbers-dictionary/translator-numbers-dictionary-English.dict" 1385332860 1638 2bf1a1dea98f8a4d28033fce76e9cc67 ""
  "/usr/local/texlive/2015/texmf-dist/tex/latex/beamer/translator/dicts/translator-theorem-dictionary/translator-theorem-dictionary-English.dict" 1276550127 3523 1f9d9b91f7d78b73e74c7e97bca30fb0 ""
  "/usr/local/texlive/2015/texmf-dist/tex/latex/beamer/translator/translator-language-mappings.tex" 1338588496 5067 f1bb98f63e0761f897f48a159127fbb6 ""
  "/usr/local/texlive/2015/texmf-dist/tex/latex/beamer/translator/translator.sty" 1356734651 3824 9ccc2efa439cf13750315a0f20d4f691 ""
  "/usr/local/texlive/2015/texmf-dist/tex/latex/chemgreek/chemgreek.sty" 1429144569 42328 ebbdf25a6f1ca80945e7c0dcf33f6472 ""
  "/usr/local/texlive/2015/texmf-dist/tex/latex/filehook/filehook.sty" 1318545832 12104 88bda8c1ae09e2b6dc29ed32629eafa1 ""
  "/usr/local/texlive/2015/texmf-dist/tex/latex/geometry/geometry.sty" 1284422013 40502 e003406220954b0716679d7928aedd8a ""
  "/usr/local/texlive/2015/texmf-dist/tex/latex/graphics/graphics.sty" 1428932888 14285 20d80486c4ae98139889d8789596c967 ""
  "/usr/local/texlive/2015/texmf-dist/tex/latex/graphics/graphicx.sty" 1428932888 8125 557ab9f1bfa80d369fb45a914aa8a3b4 ""
  "/usr/local/texlive/2015/texmf-dist/tex/latex/graphics/keyval.sty" 1428932888 2594 d18d5e19aa8239cf867fa670c556d2e9 ""
  "/usr/local/texlive/2015/texmf-dist/tex/latex/graphics/trig.sty" 1428932888 3439 44bd4a1da7f27787173f2e99116b0a7f ""
  "/usr/local/texlive/2015/texmf-dist/tex/latex/hyperref/hpdftex.def" 1352416072 51837 247bd8424b3835ef78c236dc1e0b4aef ""
  "/usr/local/texlive/2015/texmf-dist/tex/latex/hyperref/hyperref.sty" 1352416072 231792 5fc9dc7dd667e773a766ecc63bba7f4b ""
  "/usr/local/texlive/2015/texmf-dist/tex/latex/hyperref/nameref.sty" 1351899753 12847 25b617d63258c4f72870c883493a3cf8 ""
  "/usr/local/texlive/2015/texmf-dist/tex/latex/hyperref/pd1enc.def" 1352416072 14005 155ac8fad2e5dd7c2cdd130fabd96633 ""
  "/usr/local/texlive/2015/texmf-dist/tex/latex/l3experimental/l3str/l3flag.sty" 1417044313 3748 8caef8c1a0f254f0868bfb798b745f30 ""
  "/usr/local/texlive/2015/texmf-dist/tex/latex/l3experimental/l3str/l3regex.sty" 1417044313 98545 7272e8c1b52a5cc0bbe8fa2caad9d4da ""
  "/usr/local/texlive/2015/texmf-dist/tex/latex/l3experimental/l3str/l3str-convert.sty" 1403044329 21804 1f76bdda42aac6de1d6cc154fe666125 ""
  "/usr/local/texlive/2015/texmf-dist/tex/latex/l3experimental/l3str/l3str.sty" 1417044313 10702 b51972d32cba1fdbc56822fbe1751dac ""
  "/usr/local/texlive/2015/texmf-dist/tex/latex/l3experimental/l3str/l3tl-analysis.sty" 1403044329 14754 73817ded60faf1acaf1aa5a59a787589 ""
  "/usr/local/texlive/2015/texmf-dist/tex/latex/l3experimental/l3str/l3tl-build.sty" 1409074389 4318 19e3d1ddeb670198d71ff9bd3bc1373a ""
  "/usr/local/texlive/2015/texmf-dist/tex/latex/l3kernel/expl3-code.tex" 1425333639 620503 0a42d66dc46ae1556f8411b690472b29 ""
  "/usr/local/texlive/2015/texmf-dist/tex/latex/l3kernel/expl3.sty" 1425333639 9939 d111746ad1c76689755456576a3e5b3a ""
  "/usr/local/texlive/2015/texmf-dist/tex/latex/l3kernel/l3pdfmode.def" 1417044313 5044 893dfca2aa5b7b2748a9a0632e0b33d7 ""
  "/usr/local/texlive/2015/texmf-dist/tex/latex/l3kernel/l3unicode-data.def" 1425333639 36377 33858a9b2d242d8c95adb07885e1ee99 ""
  "/usr/local/texlive/2015/texmf-dist/tex/latex/l3packages/l3keys2e/l3keys2e.sty" 1417044313 5415 f2f38bb22547abf809d715d94df92bcc ""
  "/usr/local/texlive/2015/texmf-dist/tex/latex/l3packages/xparse/xparse.sty" 1417044313 56537 02dfce72dd53c1e4f143ba9ddcea0d19 ""
  "/usr/local/texlive/2015/texmf-dist/tex/latex/latexconfig/color.cfg" 1254097189 802 7b8c8d72c24d795ed7720e4dfd29bff3 ""
  "/usr/local/texlive/2015/texmf-dist/tex/latex/latexconfig/epstopdf-sys.cfg" 1279039959 678 4792914a8f45be57bb98413425e4c7af ""
  "/usr/local/texlive/2015/texmf-dist/tex/latex/latexconfig/graphics.cfg" 1278958963 3563 d35e897cae3b8c6848f6677b73370b54 ""
  "/usr/local/texlive/2015/texmf-dist/tex/latex/latexconfig/hyperref.cfg" 1254097189 235 6031e5765137be07eed51a510b2b8fb7 ""
  "/usr/local/texlive/2015/texmf-dist/tex/latex/mhchem/mhchem.sty" 1429917589 129390 bfe13185ebf026b54fdaa2626aa6769e ""
  "/usr/local/texlive/2015/texmf-dist/tex/latex/ms/everyshi.sty" 1177890616 3878 6aa7c08ff2621006e0603349e40a30a8 ""
  "/usr/local/texlive/2015/texmf-dist/tex/latex/oberdiek/auxhook.sty" 1303254447 3834 707ef09f31d7d2ea47ba89974755dfe0 ""
  "/usr/local/texlive/2015/texmf-dist/tex/latex/oberdiek/epstopdf-base.sty" 1303254447 12029 04d7fdf76e0464c23b5aa3a727952d7c ""
  "/usr/local/texlive/2015/texmf-dist/tex/latex/oberdiek/grfext.sty" 1335995445 7075 bd0c34fbf1ae8fd1debd2a554e41b2d5 ""
  "/usr/local/texlive/2015/texmf-dist/tex/latex/oberdiek/kvoptions.sty" 1335995445 22417 c74ff4af6a1aa2b65d1924020edbbe11 ""
  "/usr/local/texlive/2015/texmf-dist/tex/latex/oberdiek/rerunfilecheck.sty" 1303254447 9581 1158efc648bc09d5064db5703c882159 ""
  "/usr/local/texlive/2015/texmf-dist/tex/latex/pdftex-def/pdftex.def" 1306616590 55368 3c8a0d99822330f2dfabc0dfb09ce897 ""
  "/usr/local/texlive/2015/texmf-dist/tex/latex/pgf/basiclayer/pgf.sty" 1393459310 1190 4e20f1d26da9f86ba6a50d7ad16c48d2 ""
  "/usr/local/texlive/2015/texmf-dist/tex/latex/pgf/basiclayer/pgfcore.sty" 1288312291 410 5bf12ea7330e5f12c445332a4fe9a263 ""
  "/usr/local/texlive/2015/texmf-dist/tex/latex/pgf/compatibility/pgfcomp-version-0-65.sty" 1203877327 21115 facf03b7dbe5ea2f5f1dce1ac84b5d05 ""
  "/usr/local/texlive/2015/texmf-dist/tex/latex/pgf/compatibility/pgfcomp-version-1-18.sty" 1203727794 1091 d9163d29def82ee90370c8a63667742c ""
  "/usr/local/texlive/2015/texmf-dist/tex/latex/pgf/frontendlayer/tikz.sty" 1203877327 339 592cf35cba3d400082b8a9a5d0199d70 ""
  "/usr/local/texlive/2015/texmf-dist/tex/latex/pgf/math/pgfmath.sty" 1393459310 306 0796eafca5e159e6ec2167a6d22d81b1 ""
  "/usr/local/texlive/2015/texmf-dist/tex/latex/pgf/systemlayer/pgfsys.sty" 1393459310 443 0b2e781830192df35c0fd357cf13e26e ""
  "/usr/local/texlive/2015/texmf-dist/tex/latex/pgf/utilities/pgffor.sty" 1393459310 348 8927fde343487e003b01a4c2ca34073b ""
  "/usr/local/texlive/2015/texmf-dist/tex/latex/pgf/utilities/pgfkeys.sty" 1203727794 274 4cad6e665cc93ac2ac979039a94fa1e1 ""
  "/usr/local/texlive/2015/texmf-dist/tex/latex/pgf/utilities/pgfpages.sty" 1393459310 32873 2ca10a245e4ef649521aca815f072555 ""
  "/usr/local/texlive/2015/texmf-dist/tex/latex/pgf/utilities/pgfrcs.sty" 1203877327 325 2bcd023400636339210573e2b3ee298b ""
  "/usr/local/texlive/2015/texmf-dist/tex/latex/pgf/utilities/xxcolor.sty" 1203877327 2267 e82edfd18fbf4047c6f20ed9467f27db ""
  "/usr/local/texlive/2015/texmf-dist/tex/latex/sansmathaccent/sansmathaccent.sty" 1364512039 4280 a62885a2f2d4221d634eb6cd5559e518 ""
  "/usr/local/texlive/2015/texmf-dist/tex/latex/tools/calc.sty" 1428932888 10214 78c09985255ed93018b1db2c4e2f6deb ""
  "/usr/local/texlive/2015/texmf-dist/tex/latex/tools/enumerate.sty" 1428932888 3467 e23880ed1af32024be116b861a72d6e1 ""
  "/usr/local/texlive/2015/texmf-dist/tex/latex/ucs/data/uni-global.def" 1368571634 1375 8a855db83af5d6753ccbbd32e6a8a901 ""
  "/usr/local/texlive/2015/texmf-dist/tex/latex/ucs/ucs.sty" 1368571634 27982 5723d81d568db410592a59b85fb3eaae ""
  "/usr/local/texlive/2015/texmf-dist/tex/latex/ucs/ucsencs.def" 1368571634 22368 c53c9d0d16c65bef2b157515c9d9f658 ""
  "/usr/local/texlive/2015/texmf-dist/tex/latex/ucs/utf8x.def" 1368571634 8036 21f7ac37aafb6cfeddbb196b8bfd6280 ""
  "/usr/local/texlive/2015/texmf-dist/tex/latex/url/url.sty" 1388531844 12796 8edb7d69a20b857904dd0ea757c14ec9 ""
  "/usr/local/texlive/2015/texmf-dist/tex/latex/xcolor/xcolor.sty" 1169481954 55224 a43bab84e0ac5e6efcaf9a98bde73a94 ""
  "/usr/local/texlive/2015/texmf-dist/web2c/texmf.cnf" 1428852030 31983 18aeec08f48baa3cf3508d538dd5f459 ""
  "/usr/local/texlive/2015/texmf-var/fonts/map/pdftex/updmap/pdftex.map" 1432479641 1764542 91654ba72bdb667e84ea24f076ae16d8 ""
  "/usr/local/texlive/2015/texmf-var/web2c/pdftex/pdflatex.fmt" 1432479681 3849859 39a7d258195bde2394e244961601fbc5 ""
  "/usr/local/texlive/2015/texmf.cnf" 1432479636 577 0d611272082f3cdb8e80e09a3c69cf07 ""
  "lecture 12" 1457452571 13305 3c99397f9096572db1f9bcef71c79e5a ""
  "lecture_12.aux" 1457452576 2881 b455a9978e6c265f9d53bd441345ba96 ""
  "lecture_12.nav" 1457452576 1427 d500107c07b9667a48af36f601f6427f ""
  "lecture_12.out" 1457452575 0 d41d8cd98f00b204e9800998ecf8427e ""
  (generated)
  "lecture_12.toc"
  "lecture_12.pdf"
  "lecture_12.log"
  "lecture_12.snm"
  "lecture_12.aux"
  "lecture_12.out"
  "lecture_12.nav"
  "/Users/luansitao/Documents/Elementry stochastic process/lecture 12/lecture_12.pdf"
  "/Users/luansitao/Documents/Elementry stochastic process/lecture 12/lecture_12.log"
